problem-size;Elapsed-time;CPU-secs-kernel;CPU-secs-user
10;0.0;0.0;0.0
20;0.0;0.0;0.0
30;0.0;0.0;0.0
40;0.0;0.0;0.0
50;0.0;0.0;0.0
100;0.02;0.0;0.018
200;0.15;0.0;0.15
300;0.5;0.0;0.5
400;1.19;0.0;1.19
500;2.33;0.0;2.326
600;4.022;0.002;4.02
700;6.388;0.0;6.386
800;9.523999999999997;0.0;9.517999999999997
