problem-size;Elapsed-time;CPU-secs-kernel;CPU-secs-user
10;0.0;0.0;0.0
20;0.0;0.0;0.0
30;0.0;0.0;0.002
40;0.0;0.0;0.0
50;0.0;0.0;0.004
100;0.01;0.0;0.041999999999999996
200;0.09;0.0;0.336
300;0.28400000000000003;0.0;1.084
400;0.68;0.002;2.582
500;1.3559999999999999;0.002;5.1659999999999995
600;2.572;0.006;9.932
700;4.482;0.02;16.881999999999998
800;6.609999999999999;0.014000000000000002;25.815999999999995
